Goodness-of-fit (GOF) metrics and FDC-based signatures — gof_metrics • hydroSWAT
…
    Examples

# Synthetic daily flow data
set.seed(123)
obs <- abs(rnorm(730, mean = 50, sd = 20))
sim <- obs * runif(730, min = 0.8, max = 1.5)

# Compute a single metric (NSE)
gof_metrics(obs, sim, "NSE")
#> [1] 0.4847

# Compute all metrics
gof_metrics(obs, sim, all_metrics = TRUE)
#> # A tibble: 22 × 2
#>    gof      value
#>    <chr>    <dbl>
#>  1 NSE      0.485
#>  2 log_NSE  0.823
#>  3 mNSE     0.309
#>  4 rNSE     0.560
#>  5 KGE      0.774
#>  6 KGElf    0.833
#>  7 KGEnp    0.815
#>  8 KGEkm    0.802
#>  9 RMSE    13.9  
#> 10 TRMSE    0.731
#> # ℹ 12 more rows
…
